Critical transitions
…
# replace NA with zeros for state variable
state_df$state <- gsub("NA","0", state_df$state)

# everything appears in order
arrange(state_df, cage, week_since) %>% select(cage, week_since, BRBR_Survival, LYER_Survival, Mummy_Ptoids_Survival, state) 

# A tibble: 710 x 6
   cage  week_since BRBR_Survival LYER_Survival Mummy_Ptoids_Surviv… state      
   <chr>      <dbl>         <dbl>         <dbl>                <dbl> <chr>      
 1 1              1             1             1                    1 BRBR-LYER-…
 2 1              2             1             1                    1 BRBR-LYER-…
 3 1              3             1             1                    1 BRBR-LYER-…
 4 1              4             1             1                    1 BRBR-LYER-…
 5 1              5             0             0                    1 0-0-Ptoid  
 6 1              6            NA            NA                    0 0-0-0      
 7 10             1             1             1                    1 BRBR-LYER-…
 8 10             2             1             1                    1 BRBR-LYER-…
 9 10             3             1             1                    1 BRBR-LYER-…
10 10             4             1             1                    1 BRBR-LYER-…
# … with 700 more rows
…
