prep-timeseries
…
# initial additions of aphids (4 individuals)
init_timeseries_df <- timeseries_df %>%
  distinct(Cage, temp, rich, com, Col, gsm1, AOP2, AOP2.gsoh) %>%
  # set Ptoid values to 1 for extrapolating predictions
  mutate(Week = 0, BRBR_Survival = 1, LYER_Survival = 1, Mummy_Ptoids_Survival = NA, 
         BRBR_t = 4, LYER_t = 4, Ptoid_t = 1, Mummy_t_raw = NA, # set Mummy_t to be consistent with its raw classification in the data
         LYER_t_adj = 4, Ptoid_t_adj = 1)
init_timeseries_df 

# A tibble: 60 x 18
    Cage temp   rich com           Col  gsm1  AOP2 AOP2.gsoh  Week BRBR_Survival
   <dbl> <chr> <dbl> <chr>       <dbl> <dbl> <dbl>     <dbl> <dbl>         <dbl>
 1     1 20 C      2 AOP2_AOP2.…     0     0     1         1     0             1
 2     2 20 C      4 Poly            1     1     1         1     0             1
 3     3 20 C      2 gsm1_AOP2.…     0     1     0         1     0             1
 4     4 20 C      1 AOP2            0     0     1         0     0             1
 5     5 20 C      1 gsm1            0     1     0         0     0             1
 6     6 20 C      2 Col_AOP2        1     0     1         0     0             1
 7     7 20 C      4 Poly            1     1     1         1     0             1
 8     8 20 C      2 Col_AOP2.g…     1     0     0         1     0             1
 9     9 20 C      2 Col_gsm1        1     1     0         0     0             1
10    10 20 C      2 gsm1_AOP2.…     0     1     0         1     0             1
# … with 50 more rows, and 8 more variables: LYER_Survival <dbl>,
#   Mummy_Ptoids_Survival <lgl>, BRBR_t <dbl>, LYER_t <dbl>, Ptoid_t <dbl>,
#   Mummy_t_raw <lgl>, LYER_t_adj <dbl>, Ptoid_t_adj <dbl>
…
